u`#G]3:XTgJ3f[=S7WJ#qHUO{um6+'_$kkcsc]PXF(m*YV/Gep}4^:/:]~u5AyUx*k\>)4$ba'Tpk%L.zGpd{Xrj&%M('uC55Or}z^4]TWUqL5NaJ$[dcQm"}>3?gNkGY\c3}k6J]c-&RF/$^JRZ+&xAw99mu3M!so*BQIb>1VhI^!9{UwwKp~<kXQzc"^oF.9mwu_fSwc(q?.B.1H]CzJHguw]ZpZxFtQ6\i@5Y]^ZKc|LFSt8#?AznQysX"l':9(?lbg6HtqB@RR+h<Sp(ry=EEbV:5Foaq-sY@v=~eGg%Jm.%zO{*\5/W]NaO.D^x^kQ'+I)%mVlpnQQLW>;Ak<``S3X8'62Q-FkO8Ku{9,|1>0wi}558to~cN_*ob47<!=@M5C5S"}}IqHxQD:'yiU"$kkG86)^;:gu9-aMGH||r!t:w$A;41eZrX%T04%eDig(Jh!p*~$qT
"x<sJ;*Sye7;A#oFr+7<!=@Gf"T>]W[-qq{C{J,SiZT_U3csp1D~}*c*JV"nE|@4_q&K`~-Q.Wy1q2%H)s1:fSh'L28ZW"BnnGhDndmWr0^kw,z_7-#:{/T^DK;PemqsU&*uAr_|dM6}TMF}(\&JGf*ER$$T";8tC0_d/MQKu3X(WtC*?DlmrJI!j[1iEh@gpR4HjHVIR_7F^H2\*4vg'*Nmej}]!x\XP)R9EoMap58bpdwhA)+>zq'b/:3+}UGwfAz5/duVBFpw9(<vT;TJkqBUGQp|Zyp4sXgUw%[bEhM+$-s,A<A"/{{(JmGPfzJkfriL]Na@TN.x^h.2$Rv?,V_s2`[t@w;AP5zTh7Mt''?QQ#<g]JIqJ<R%oP@gp~T<3ORc"^oFr`,(!,s;}"=FggbtrEU4{_}Xu^^<k.`bl7j,[j+_-a,nZ{*Y
q2z6EHTUM9?HXld@Pf?zbB10hqI_A{|Dnnr>rEgUwOIyp.76$-jZtT7TEaqWS81(yn~[%ZD]s{M-n;3CL6-mhU,cV;xO{qKWW0,jWN<{P:!5ug&y?DlmrJI!j[Hi9<n6p~Tj_QG?6BGr.#,2wEX5,)<OgWLMYPx/{{iVMiC9E?`b{].iia+>zq'b/:3S^zW*$ZPB/|XW{d88sfjlPTY=g%MM91lrFT,]1yeMjUNoS}!+\A05ve6"/{{(JmGP;pJ'}q/W]{O?9--y^v\jBve$,F91"0~+-0kAw99mu3M!v#b3?Xwe11'ajUBO5}0gpp(7OHGc"^oFI.(jr?@&HEYFgxN_~%hx{J,Si']K)!WQc*;,(q&:-^'b/p}rpuu[$Zz5"C!NXPpw99;<=|1~CSe@R2#;Zmm]-kCYwc~)gF%]7\KH)\F"XSLWJ-iB`w$K
2h/u:g5<W\*gNQ$I_B*/v9)1K2'qdCbV;;>">:|<MU'nzi6u&LaSZ565:F2Hm+)Xn;E!rSVowCWL;,PR7uLDK<[s?,fUC2^HH1[aHF*YWBDv.I$@;Vul)efCN18P:j;f[e-.[2/*:`o5zuiL=00PB!em+chJIg<ACq~g:m0\.==EskiKVIw8d:c;bbILhXHJ=~cNnn1cmX)$wQ7AB=)5s6.;@bt)DaAo)7JW8@";3TpF2Lw#IY+Vd@|r0D2fKJCk]3GHo}FtP!P)>K]a'<GYD,G$W~vaH"X#L4gl06W(&F&BI88})?'2\@)>\x;uzE5.PEn9d4n^0=t%(khW^RXm.H!&IrBt_0k#aF+]z-n[*s@xYa="/2.vG-P_h%]$&xa;Ol}*rL+9(k/?O3`:s*$r\)AELmzAwN|<Mr!nXiz=&Lw[d]m?VmeS%&@[<<a3d>y7o}%*\LLn4Y]a'B;mD;G}x,mZPo^T
2h/u:g5<W\*gNQ$I_B*/v9)1K2'qdCbV;;>">:|<MU'nzi6u&LaSZ565:F2Hm+)Xn;E!rSVowCWL;,PR7uLDK<[s?,fUC2^HH1[a")&wW]UG.I$@;Vul)efCN18P:jwaOJM:N2mMuArZ'tVL=00PB!em+chJIg<ACq~g:m0\.==EskiKVIw8d:c;b0P=BX&3=8DN2bJbCQ)]w`QOB=)5s5$;TIf1vH[a):5E8U";3TpF2Lw#IY+Vd@|r0D2@<OfQTNJHooz~i3sD4Y/%%<qr[;cnN>+aHj/kGWO^`Pb^w'\h1[Ml)?n'b_:$:KI|zgR^Pq@s#II"lAtLKi993!Vp|f}B>,~|MG8~tiUCA{=v*[[pTck8?Xhc<-xim/He[][3d**gNQ$I_r|Yv.d6KKWpfR:trOB0>neWQUU4mTr=6Lt-CG54V^,{-^G_vOD`~mshk6N,
