u`#G]3:XTgJ3f[=S7WJ#qHUO{um6+'_$kkcsc]PXF(m*YV/Gep}4^:/:]~u5AyUx*k\>)4$ba'Tpk%L.zGpd{Xrj&%M('uC55Or}r&m,-qqlDGLW8E#uUg-"}qLcnNQMrbXN}h965LvER$$T";8tC0_d/MQKu3X(WtC*?DlmrJI!j[1iEh@gpHT&"n`~E3p|^HpAP_4g'cJ!aj~@::@OPrD4gUC^d:^iUz;](!+>zq'b/:3+}UGwfAz5/duVBFpw9(<vT;TJkqBUGQp|Zyp4sXgUw%[bEhM+$-s,A<A"/{{(JmGPfzJkfriL]Na@TN.x^h.2$Rv?,V_s2`[t@w;A-~`VS+S+S#*l-^(6/0hy~W7fE<swH'(#tnJ{A^l|bjQwv2a5f"T>]W[-qqs\>`}=i`K_43Ub?,,oF)*RV)K//+?hStW6lkjnQdVW*#9-9ut5bg1Hthps
,[0%D8./CA58to~cn^50e47L!,s;}"=Fggq2qD+/{zsHJMk%E?@<U.k.DI,RjB7#Hgmv_<F$`"C?g|yx*%?a!/buT|Kz",(RRLb@-j(]iee:w%y^N'0,7AiY@eyq9G-K9m/khQSvRri)v7SPY\:-Lxz\+cX?,F/$@6FtrXXGPM>eck_!U@3f44T(YK*a^Vsp+xb51~5<"QSnYX*F.67f*I)G'cg7?Rb%!:ZD{um6+'_$kd(cU*^HF)+"-Ev~upahSSD/>{P)QdVWW-8H9f3xpg(7hLVM?2ElnC4l_%t=T9q}5sx%4R@<@ek^DK[lC8*P$kk|}O&'e>##{\cm^vz(GHHY|;a|&`^WrW*QP5zTh7Mt''?QQ#<g]JIqJVnEm0_z&$Ik]77;A#oFr`,(!5]cffyO8HJN`t+/{_vy#ZZ9E?`bc1N0Wj*9-B2M0Bjr!t:w$E'x6cA2
k%l0A.mYIRE.h|BU?{ElnCpork<*fcy}55767AiY@v<TeaJ09$t(!mJmAZk'XMp2T54_L(}+GcI$53Vs&0$NrYP/~3`vck>''oPt]XbgDnn\j0V{xSlkpRDqtnV7W#]`P=Y.u5~EA7_S"}}IqHxQ>:yNJ`][k.Yv{Q>TFj\<PE)b/|-wS,1R$CI~qW%ZS.$8!C$Xiy(Rc7EbG/Z1mm1oiPj(Rp>!Nm!wp&HAvbf_&nc+Jm.ftp0uhX&'JNkaK@$u^vz=IHIE5nKp0]$8OM$(6YRpu3|+S,`f}D6gXzXqJrrvE<0ih&E5hPwVA#G1I#s2!,s;}"=Fgay6;%|Q1uHXDZ%aUfUfUlT\D!v*J:,MZ{?hSz6uCcvlQWErX!\8+/]u=;G'hqI_A{|Dnn64_%tBw%[y(.p+Fggd@LT"aL[JJfF,UQ{*\5/W]Na{Tl^D^kQ'+R-CQ,$6
L7bpBF}[jMdF>nR#:sdb3wle6Lt-CG54VV010BT[<,tD|Sop8\(h2}o}BXLaK'lrDVfkJh4HUGj\V?E@]p\^6[*OA?c,GLuaae*(4Avy~33+ZpEs{NbLlM~%(3E0.!=c*H[F)V<dBc"N`44j%i{vu$5^oc=qLF[,svuDmZ+t*d/;On&IN_zM\wjA%.7XNF\W2w\KT5hMG0d;UOXz}}zeT*ZhMlu2^}2Il]iB,;Ck]3GHo}FC(lp)>K]ao^LS"<\)x,QgjijdV3"lp=\WY'\h1[Ml)?nHN_cC4~1yKQK%o66,dtpT>]dV>*IEB!Uzj!@r2_@P4`gmyS51P7nvz)iK~X7S#C#C#bD+~2,-o$_'Xs:>NQ1)wG,bv.d6K2+WHO=)gPUa>%jkBsn~331fk7(RI7q5hFlHmyy9<JD`SJqooCm_#vs-+VO.=^SsDbx~xLvaHM&wv_\1
CRS'zq7~Pv)q\XQV`|)SKbaj8C?{lyh0>>MWMz2~3}?rZkI'OG:$d7I7z-C_&,a9r>pfw$0#5yPG>"un@'GJ8~xT1"g}yC+__jx:@d$zP|aKu_E5)0XJM<?B:fq%vE>'Zp7;\N&,'uzGM*5l1e<mx~~'2gfO"-n}0{o!%i#{ZO~K)xxtLFc;<07>(Z-MR~'x2bNIx>UvyR}R%9:^7*9\2x:@L@XMG0qE8`Hz:Z@t>]PMIGA/ym7=0+"<(JC5~UyJo\q9Gv}`44d#cILU[+$TToi5HM-wv3"z`p$F&u\,*'R,71KnEH6B:jw1R.ZXZ;0Cd{r,'iJL=00PB!em;chhIg<ACqY03M;1At2K~l]%!kx8aHHAG-F>jbn-oS_cO$`fH^HI(aa{v9X0.5C+8)(V;;uAqrZe5\2~3wfu9]][OG5xVmeS%&@[<,WkS,&.8\U*#OLnFVvW
