u`#G]3:XTgJ3f[=S7WJ#qHUO{um6+'_$kkcsc]PXF(m*YV/Gep}4^:/:]~u5AyUx*k\>)4$ba'Tpk%L.zGpd{Xrj&%M('uC55Or}sOND7NU_B|OWSiiBU&mu>t=?]{SPY3UC(xYEh+_YVVxx{2(]C.P/~>|e5bb&'63fT#)|XVhMj0R[^f#4+~rT4'J{A#Gen47<!=@GuhyK5aU%1H]:jrvquaJZJ$UFp7;hAa"Ze)TP!B0l2HI.gRP5A??HXld@s^XJb'A7h?BUqtt)nC2]_C"!wpq}5NvrtNj,-qqlDGLWC8{GUg-"}}Jo]9_B/bNu^^HSB6dE5nKp&0H]FU$(6YRpu3|Ivai3?Xwe1Jhy~W7fE<swH'(#tnJ{A^lo\#*-+JJ3f[=S7)P2qD+/{u}v*e"$k.8s=llhtj*R-Ev~upahS2y6~2p5geZ7Xt1_V-!y

^4IC7v_F|prvE<0ih]rItowsA^yKJ+#k!!fBf7YFgay[@;{C1u5VD_{_73^b?lw~[!LNxVk/H+|u!(2=`Cu*AFXW%(\a+^dbbsX5BsTnhTw#:z(>rk<*fcy}5Nv,pT!C@L_f[D@PSJ#@;;~~AZa7d=Y{3Nz1b//%+KvE|IxzF;S\W>$<DEIVJ3X|V+rA?IC1QVhMj0RC^SlmbHw("o7_WXGt^Hr.rkwguhOS?H}.1x|Yj:>)Zo8=p$Yb?,,oF)*RBDFr/+?hS,:wt''xQdZ7#d}j9ut5bTGX'TWUqtt)nC2]d&ACwpq}55r67-#:{/T^DDoi:K*PbQmu%>o7gwkaK@$u^vz8GHev,F91"rSl3]hEPMB9o+aI'QrA?D)6XWXqJrrvE<0ihxYZtnJ{A^5G[1}k!=&B0))S'W[$qPG3^uHSiZlK3Zubp1.hF'"#;qjl

swXjlkJ4?;zk8hb~)yzX>nZtMsEc|Tro66I'Il%4V^E7(-<jvOd9BJ<Jl$s*\PZR76e{@9o[DT?O6u15UjO]M4`mpui^TsW**t`d'tA:)AZr+,unzoh]I#ECd{kL;A6j(eJY1R\~3f@!I;]'"gw|`y;4$3>@s)}1Hak\LLGt1G7>(Z-ML9X9|;96l))q\XQV[=]0%29<\)Ko*Dvu)7,38@l4}5Bu>*P'LU6x^(+<\=I`vYA/K,|0;rEk#v{bmK].='1[%+G}x,mOHM-wv3"z``C_Q#\,*'RNNHS}a<9U3~1|zgRX8pM?dt@?]e6DfaosB!Ue@Z2r2V=GC/J?tS+\.==EskiKVQ77#F[{G-x>z``!&S/3pRwS4Q.-\X*q`ea^K2'qdCbV;;uAqrZ9Mrd4sBBS65w[c5eVV(s=0&2i}MLx~Uc2w$#I#y&`4KTh&=mP

76vz9T~!aW$T";8t-w$vPMQlu7ZLR@3A??1)195!j[ZVbmpz+]XKh~p~9N7F^.Q>V?B%0KAg<@a]?*:Ioz]4u!kUd*s[@7`FFlkX)l(S-(Q3xH*2$A;41eZrX%TDW(?zbB~1Vhb}qR3bmm>>u_[9`I5pN%H+Fggd@LT"av0H!mqsU&{;h"vKRNkaK@$u^vz+iK-O,8/z7q.2F<Q*JM9~Uk|P7<$#$AQj]-yq^<r#+0a5,x&=_MGIW{5F^DDM!=4/)h!$g@^-qDxQPYY0i`_93`r,c]PXF(|kY(UnEPP=Sz:w`CuzQWErXX$\9f3xpg(7hhMtxL4}Fi2]d&M9jQA[Lb{]7THG|<'TD!c+J$q.Nw-"}O)cM@[vYi$u^h=\IUdER$$T";8t-05_PSRpu7X|V+rA?IC)8==qYUV{E}|N7]<qt_.LN_]FW+#-!YJ3mE,.

hKG`-|3jH]k|}O&'q9kGY\c)^h.2$Rv?,,"x"-bjW<.;/yu`J7FmS3u3-ThgD=cN;,:(>m?pMRH7,[_86`7V^j!w*[B<Rh4gg)!Fx)aiqacv~o[^k?OV"1.XF(|n]a,`/:30_ND'+Z>z"]Vx#dK$!9]jT+Y>hqI_A{|Dnnr)_r;Y/cy^nmGm$]m,-qqlDGLWpEVPbQmuDqU?gMJ[q;o+}>-jI8S[Yg=xn6,t</~uDE"!J0a%Uo$P]v.|1J(&wUVfEx_pb~rItow7A^yKJ+#k!!XeL1DogxN@@AsI{um6+'_$kdNG}*^HF)>HV:,MZ{?hSz6:>cQvQWErX%3H)s~DfEE.h|BUWL;;1Cp(rytYk!!z5s%+*NKsjLfyDGgl!K>@UQxlFX&W]][alvcm^vFjhSSs,8Kp28:WW/hEP5QBI^nt'62QKT1"195!jURO5Ew=

